%YAML 1.1
%TAG !u! tag:unity3d.com,2011:
--- !u!114 &11400000
MonoBehaviour:
  m_ObjectHideFlags: 0
  m_CorrespondingSourceObject: {fileID: 0}
  m_PrefabInstance: {fileID: 0}
  m_PrefabAsset: {fileID: 0}
  m_GameObject: {fileID: 0}
  m_Enabled: 1
  m_EditorHideFlags: 0
  m_Script: {fileID: 11500000, guid: c567c4dafaba76941b880340e2f777b8, type: 3}
  m_Name: VFX Puff
  m_EditorClassIdentifier: 
  prefab: {fileID: 9081887603999964757, guid: bec9bdaa4203f7f458475cd006fa6eac, type: 3}
  duration: 5
  type: 1
  amount: 5
