%YAML 1.1
%TAG !u! tag:unity3d.com,2011:
--- !u!114 &11400000
MonoBehaviour:
  m_ObjectHideFlags: 0
  m_CorrespondingSourceObject: {fileID: 0}
  m_PrefabInstance: {fileID: 0}
  m_PrefabAsset: {fileID: 0}
  m_GameObject: {fileID: 0}
  m_Enabled: 1
  m_EditorHideFlags: 0
  m_Script: {fileID: 11500000, guid: 1bde70ec0d77d7a42a7ca9cf3580e867, type: 3}
  m_Name: Level 1
  m_EditorClassIdentifier: 
  playerHealth: 1000
  matchDuration: 120
  enemyInfos:
  - enemy: {fileID: 11400000, guid: 6bda6ad72619c9a4a8e7c020b13f31d5, type: 2}
    startDelay: 5
    spawnRate: 5
    endless: 1
    enemyAmount: 0
    maxEnemies: 20
    spawnPoints: 000000000100000002000000030000000400000005000000060000000700000008000000090000000a0000000b0000000c0000000d0000000e0000000f00000010000000110000001200000013000000140000001500000016000000
  - enemy: {fileID: 11400000, guid: 10494d33cc874e44c93e21b209de8a70, type: 2}
    startDelay: 15
    spawnRate: 10
    endless: 1
    enemyAmount: 0
    maxEnemies: 5
    spawnPoints: 190000001a0000001b0000001c000000
  - enemy: {fileID: 11400000, guid: e3a03112789cbe04484a03b457e4caea, type: 2}
    startDelay: 5
    spawnRate: 10
    endless: 1
    enemyAmount: 0
    maxEnemies: 4
    spawnPoints: 1700000018000000
