%YAML 1.1
%TAG !u! tag:unity3d.com,2011:
--- !u!114 &11400000
MonoBehaviour:
  m_ObjectHideFlags: 0
  m_CorrespondingSourceObject: {fileID: 0}
  m_PrefabInstance: {fileID: 0}
  m_PrefabAsset: {fileID: 0}
  m_GameObject: {fileID: 0}
  m_Enabled: 1
  m_EditorHideFlags: 0
  m_Script: {fileID: 11500000, guid: a4ebbac4a056c44498ad0d9c1bb0c0da, type: 3}
  m_Name: Enemy Tank
  m_EditorClassIdentifier: 
  prefab: {fileID: 6874703952588041021, guid: ca27325bf9175e642976f9762308546a, type: 3}
  speed: 3
  angularSpeed: 90
  acceleration: 2
  life: 30
  fireDamage: 20
  fireRate: 4
  chaseDistance: 20
  attackDistance: 30
  ballSlamImmune: 1
  spawnEffect: 1
  dieEffect: 3
  hasShootEffect: 1
  shootEffect: 5
